…
## Getting data from the 2016-2020 5-year ACS

fips_pop

## # A tibble: 3,221 × 8
##    fips  name                      white black asian nh_white hispanic    pop
##    <chr> <chr>                     <dbl> <dbl> <dbl>    <dbl>    <dbl>  <dbl>
##  1 01001 Autauga County, Alabama   42150 10866   649    41160     1601  55639
##  2 01003 Baldwin County, Alabama  186504 19153  2033   180955     9947 218289
##  3 01005 Barbour County, Alabama   11587 11929   122    11332     1110  25026
##  4 01007 Bibb County, Alabama      17138  5045    56    16650      600  22374
##  5 01009 Blount County, Alabama    54271   808   236    50065     5362  57755
##  6 01011 Bullock County, Alabama    2663  6980   137     2162      824  10173
##  7 01013 Butler County, Alabama    10183  8795   261    10125      290  19726
##  8 01015 Calhoun County, Alabama   83801 24190   925    82049     4406 114324
##  9 01017 Chambers County, Alabama  19015 13372   368    18413      843  33427
## 10 01019 Cherokee County, Alabama  23970  1250    26    23779      432  26035
## # … with 3,211 more rows
…
