…
library(socviz)

## 
## Attaching package: 'socviz'

## The following object is masked from 'package:kjhutils':
## 
##     %nin%

organdata

## # A tibble: 238 × 21
##    country   year       donors   pop pop_dens   gdp gdp_lag health health_lag
##    <chr>     <date>      <dbl> <int>    <dbl> <int>   <int>  <dbl>      <dbl>
##  1 Australia NA          NA    17065    0.220 16774   16591   1300       1224
##  2 Australia 1991-01-01  12.1  17284    0.223 17171   16774   1379       1300
##  3 Australia 1992-01-01  12.4  17495    0.226 17914   17171   1455       1379
##  4 Australia 1993-01-01  12.5  17667    0.228 18883   17914   1540       1455
##  5 Australia 1994-01-01  10.2  17855    0.231 19849   18883   1626       1540
##  6 Australia 1995-01-01  10.2  18072    0.233 21079   19849   1737       1626
##  7 Australia 1996-01-01  10.6  18311    0.237 21923   21079   1846       1737
##  8 Australia 1997-01-01  10.3  18518    0.239 22961   21923   1948       1846
##  9 Australia 1998-01-01  10.5  18711    0.242 24148   22961   2077       1948
## 10 Australia 1999-01-01   8.67 18926    0.244 25445   24148   2231       2077
## # … with 228 more rows, and 12 more variables: pubhealth <dbl>, roads <dbl>,
## #   cerebvas <int>, assault <int>, external <int>, txp_pop <dbl>, world <chr>,
## #   opt <chr>, consent_law <chr>, consent_practice <chr>, consistent <chr>,
## #   ccode <chr>
…
